{
    "id": 1547478244462,
    "name": "pmml-multiclass22",
    "latestModelVersion": 1,
    "runtime": "SPSS PMML Scoring Engine",
    "author": "999",
    "createdAt": 1547478244462,
    "filename": "import",
    "features": [
        {
            "name": "SepalLength",
            "type": "double"
        },
        {
            "name": "SepalWidth",
            "type": "double"
        },
        {
            "name": "PetalLength",
            "type": "double"
        },
        {
            "name": "PetalWidth",
            "type": "double"
        }
    ],
    "labelColumns": [
        {
            "name": "Species",
            "type": "string"
        }
    ],
    "type": "pmml-model-3.0",
    "serialization": "pmml",
    "learningType": "Supervised",
    "algorithm": "MiningModel",
    "algorithmType": "Classification",
    "params": {},
    "publishedBy": "",
    "isPublished": false,
    "publishedModelVersion": -1
}